{
  "warnings": [],
  "errors": [],
  "record_count": 40000,
  "subject_count": 40000,
  "paginator": {
    "first_index": 1,
    "last_index": 25,
    "current_page": 1,
    "previous_page": null,
    "next_page": 2,
    "last_page": 1600,
    "total_records": 40000
  },
  "extended_table_def": {
    "fields": [
      {
        "entry_id": "PpdFNbA73YkI",
        "concept_id": "patient_id",
        "concept_name": "Patient ID",
        "collection": {
          "collection_id": "subject",
          "event_date_field": null,
          "event_end_date_field": null
        },
        "categories": [],
        "label": "Patient ID",
        "can_delete": true,
        "can_sort": false,
        "has_errors": false,
        "aggregate": false,
        "alias": null,
        "categorize": false
      }
    ],
    "sort": [
      {
        "entry_id": "PpdFNbA73YkI",
        "direction": 1,
        "label": "Patient ID"
      }
    ],
    "table_type": "subject"
  },
  "data": [
    ["00002692010"],
    ["00014577461"],
    ["00016987502"],
    ["00017225965"],
    ["00018861943"],
    ["00021471805"],
    ["00023485581"],
    ["00023786255"],
    ["00025478005"],
    ["00028524287"],
    ["00029519596"],
    ["00030277048"],
    ["00036636611"],
    ["00037274230"],
    ["00042074907"],
    ["00043736615"],
    ["00044619291"],
    ["00049920034"],
    ["00052346795"],
    ["00056902429"],
    ["00058655011"],
    ["00058795706"],
    ["00059112127"],
    ["00060467768"],
    ["00060704707"]
  ]
}
