{
  "warnings": [],
  "errors": [],
  "record_count": 40000,
  "subject_count": 40000,
  "paginator": {
    "first_index": 1,
    "last_index": 25,
    "current_page": 1,
    "previous_page": null,
    "next_page": 2,
    "last_page": 1600,
    "total_records": 40000
  },
  "extended_table_def": {
    "fields": [
      {
        "entry_id": "PpdFNbA73YkI",
        "concept_id": "patient_id",
        "concept_name": "Patient ID",
        "collection": {
          "collection_id": "subject",
          "event_date_field": null,
          "event_end_date_field": null
        },
        "categories": [],
        "label": "Patient ID",
        "can_delete": true,
        "can_sort": false,
        "has_errors": false,
        "aggregate": false,
        "alias": null,
        "categorize": false
      },
      {
        "entry_id": "kpDqAFcMbYEs",
        "concept_id": "first_name",
        "concept_name": "First Name",
        "collection": {
          "collection_id": "subject",
          "event_date_field": null,
          "event_end_date_field": null
        },
        "categories": ["Demographics"],
        "label": "First Name",
        "can_delete": true,
        "can_sort": false,
        "has_errors": false,
        "aggregate": false,
        "alias": null,
        "categorize": false
      }
    ],
    "sort": [
      {
        "entry_id": "PpdFNbA73YkI",
        "direction": 1,
        "label": "Patient ID"
      }
    ],
    "table_type": "subject"
  },
  "data": [
    ["00002692010", "Mike"],
    ["00014577461", "Shelly"],
    ["00016987502", "Jody"],
    ["00017225965", "Mackenzie"],
    ["00018861943", "Caitlyn"],
    ["00021471805", "Charlotte"],
    ["00023485581", "Sandra"],
    ["00023786255", "Morgan"],
    ["00025478005", "Lawrence"],
    ["00028524287", "Kylie"],
    ["00029519596", "Aaron"],
    ["00030277048", "Frank"],
    ["00036636611", "Duane"],
    ["00037274230", "Mathew"],
    ["00042074907", "Richard"],
    ["00043736615", "Jaclyn"],
    ["00044619291", "Chris"],
    ["00049920034", "Stuart"],
    ["00052346795", "Guy"],
    ["00056902429", "Pam"],
    ["00058655011", "Andres"],
    ["00058795706", "Clayton"],
    ["00059112127", "Melvin"],
    ["00060467768", "Connor"],
    ["00060704707", "Sherri"]
  ]
}
