{
  "warnings": [],
  "errors": [],
  "record_count": 40000,
  "subject_count": 40000,
  "paginator": {
    "first_index": 1,
    "last_index": 25,
    "current_page": 1,
    "previous_page": null,
    "next_page": 2,
    "last_page": 1600,
    "total_records": 40000
  },
  "extended_table_def": {
    "fields": [
      {
        "entry_id": "kpDqAFcMbYEs",
        "concept_id": "first_name",
        "concept_name": "First Name",
        "collection": {
          "collection_id": "subject",
          "event_date_field": null,
          "event_end_date_field": null
        },
        "categories": ["Demographics"],
        "label": "First Name",
        "can_delete": true,
        "can_sort": false,
        "has_errors": false,
        "aggregate": false,
        "alias": null,
        "categorize": false
      },
      {
        "entry_id": "PpdFNbA73YkI",
        "concept_id": "patient_id",
        "concept_name": "Patient ID",
        "collection": {
          "collection_id": "subject",
          "event_date_field": null,
          "event_end_date_field": null
        },
        "categories": [],
        "label": "Patient ID",
        "can_delete": true,
        "can_sort": false,
        "has_errors": false,
        "aggregate": false,
        "alias": null,
        "categorize": false
      }
    ],
    "sort": [
      {
        "entry_id": "PpdFNbA73YkI",
        "direction": 1,
        "label": "Patient ID"
      }
    ],
    "table_type": "subject"
  },
  "data": [
    ["Mike", "00002692010"],
    ["Shelly", "00014577461"],
    ["Jody", "00016987502"],
    ["Mackenzie", "00017225965"],
    ["Caitlyn", "00018861943"],
    ["Charlotte", "00021471805"],
    ["Sandra", "00023485581"],
    ["Morgan", "00023786255"],
    ["Lawrence", "00025478005"],
    ["Kylie", "00028524287"],
    ["Aaron", "00029519596"],
    ["Frank", "00030277048"],
    ["Duane", "00036636611"],
    ["Mathew", "00037274230"],
    ["Richard", "00042074907"],
    ["Jaclyn", "00043736615"],
    ["Chris", "00044619291"],
    ["Stuart", "00049920034"],
    ["Guy", "00052346795"],
    ["Pam", "00056902429"],
    ["Andres", "00058655011"],
    ["Clayton", "00058795706"],
    ["Melvin", "00059112127"],
    ["Connor", "00060467768"],
    ["Sherri", "00060704707"]
  ]
}
