{
  "warnings": [],
  "errors": [],
  "record_count": 40000,
  "subject_count": 40000,
  "paginator": {
    "first_index": 1,
    "last_index": 25,
    "current_page": 1,
    "previous_page": null,
    "next_page": 2,
    "last_page": 1600,
    "total_records": 40000
  },
  "extended_table_def": {
    "fields": [
      {
        "entry_id": "vhWdPJy5SnIn",
        "concept_id": "patient_id",
        "concept_name": "Patient ID",
        "collection": {
          "collection_id": "subject",
          "event_date_field": null,
          "event_end_date_field": null
        },
        "categories": [],
        "label": "Patient ID",
        "can_delete": true,
        "can_sort": false,
        "has_errors": false,
        "aggregate": false,
        "alias": null,
        "categorize": false
      },
      {
        "entry_id": "fQHx2HxyWiqm",
        "concept_id": "first_name",
        "concept_name": "First Name",
        "collection": {
          "collection_id": "subject",
          "event_date_field": null,
          "event_end_date_field": null
        },
        "categories": ["Demographics"],
        "label": "First Name",
        "can_delete": true,
        "can_sort": false,
        "has_errors": false,
        "aggregate": false,
        "alias": null,
        "categorize": false
      }
    ],
    "sort": [
      {
        "entry_id": "vhWdPJy5SnIn",
        "direction": 1,
        "label": "Patient ID"
      }
    ],
    "table_type": "subject"
  },
  "data": [
    ["00006252435", "Desiree"],
    ["00006898998", "Bruce"],
    ["00006986160", "Priscilla"],
    ["00007674525", "Adrian"],
    ["00008388263", "Molly"],
    ["00009993572", "Cesar"],
    ["00014908561", "Patrick"],
    ["00018577034", "Kirk"],
    ["00018861943", "Caitlyn"],
    ["00021615975", "Curtis"],
    ["00023130293", "Elizabeth"],
    ["00025721473", "Brenda"],
    ["00026868652", "Holly"],
    ["00028524287", "Kylie"],
    ["00030277048", "Frank"],
    ["00030992011", "Tamara"],
    ["00037234388", "Dalton"],
    ["00037891718", "Destiny"],
    ["00039652372", "Henry"],
    ["00042236431", "Virginia"],
    ["00043736615", "Jaclyn"],
    ["00046259911", "Tracey"],
    ["00047219650", "Erika"],
    ["00054509463", "Maureen"],
    ["00063237886", "Tim"]
  ]
}
