{
  "warnings": [],
  "errors": [],
  "record_count": 40000,
  "subject_count": 40000,
  "paginator": {
    "first_index": 1,
    "last_index": 25,
    "current_page": 1,
    "previous_page": null,
    "next_page": 2,
    "last_page": 1600,
    "total_records": 40000
  },
  "extended_table_def": {
    "fields": [
      {
        "entry_id": "K5RgKQQr2HHP",
        "concept_id": "patient_id",
        "concept_name": "Patient ID",
        "collection": {
          "collection_id": "subject",
          "event_date_field": null,
          "event_end_date_field": null
        },
        "categories": [],
        "label": "Patient ID",
        "can_delete": true,
        "can_sort": false,
        "has_errors": false,
        "aggregate": false,
        "alias": null,
        "categorize": false
      },
      {
        "entry_id": "bIONF4SK9OgG",
        "concept_id": "first_name",
        "concept_name": "First Name",
        "collection": {
          "collection_id": "subject",
          "event_date_field": null,
          "event_end_date_field": null
        },
        "categories": ["Demographics"],
        "label": "First Name",
        "can_delete": true,
        "can_sort": false,
        "has_errors": false,
        "aggregate": false,
        "alias": null,
        "categorize": false
      },
      {
        "entry_id": "8j7wVmGD4dGV",
        "concept_id": "gender",
        "concept_name": "Gender",
        "collection": {
          "collection_id": "subject",
          "event_date_field": null,
          "event_end_date_field": null
        },
        "categories": ["Demographics"],
        "label": "Gender",
        "can_delete": true,
        "can_sort": false,
        "has_errors": false,
        "aggregate": false,
        "alias": null,
        "categorize": false
      }
    ],
    "sort": [
      {
        "entry_id": "K5RgKQQr2HHP",
        "direction": 1,
        "label": "Patient ID"
      }
    ],
    "table_type": "subject"
  },
  "data": [
    ["00006252435", "Desiree", "M"],
    ["00006898998", "Bruce", "F"],
    ["00006986160", "Priscilla", "F"],
    ["00007674525", "Adrian", null],
    ["00008388263", "Molly", "M"],
    ["00009993572", "Cesar", "F"],
    ["00014908561", "Patrick", "M"],
    ["00018577034", "Kirk", "F"],
    ["00018861943", "Caitlyn", "F"],
    ["00021615975", "Curtis", "M"],
    ["00023130293", "Elizabeth", "F"],
    ["00025721473", "Brenda", "F"],
    ["00026868652", "Holly", null],
    ["00028524287", "Kylie", null],
    ["00030277048", "Frank", null],
    ["00030992011", "Tamara", "M"],
    ["00037234388", "Dalton", "M"],
    ["00037891718", "Destiny", "F"],
    ["00039652372", "Henry", null],
    ["00042236431", "Virginia", "F"],
    ["00043736615", "Jaclyn", "M"],
    ["00046259911", "Tracey", "M"],
    ["00047219650", "Erika", "M"],
    ["00054509463", "Maureen", "M"],
    ["00063237886", "Tim", null]
  ]
}
